\relax 
\AC@reset@newl@bel
\select@language{italian}
\@writefile{toc}{\select@language{italian}}
\@writefile{lof}{\select@language{italian}}
\@writefile{lot}{\select@language{italian}}
\select@language{italian}
\@writefile{toc}{\select@language{italian}}
\@writefile{lof}{\select@language{italian}}
\@writefile{lot}{\select@language{italian}}
\@writefile{toc}{\contentsline {section}{\numberline {1}Documento di vision}{1}}
\newlabel{sec:vision}{{1}{1}}
\@writefile{toc}{\contentsline {subsection}{\numberline {1.1}Introduzione}{1}}
\newlabel{introduzione}{{1.1}{1}}
\@writefile{lof}{\contentsline {figure}{\numberline {1}{\ignorespaces Scenari}}{1}}
\providecommand*\caption@xref[2]{\@setref\relax\@undefined{#1}}
\newlabel{fig:scenari}{{1}{1}}
\@writefile{lof}{\contentsline {figure}{\numberline {2}{\ignorespaces Business Model}}{2}}
\newlabel{fig:businessmodel}{{2}{2}}
\@writefile{toc}{\contentsline {subsection}{\numberline {1.2}Background}{2}}
\newlabel{brackground}{{1.2}{2}}
\@writefile{toc}{\contentsline {subsection}{\numberline {1.3}Requisiti generali e funzionalit\IeC {\`a}}{6}}
\newlabel{requisiti generali e funzionalit\IeC {\`a}}{{1.3}{6}}
\@writefile{toc}{\contentsline {subsection}{\numberline {1.4}Requisiti architetturali}{7}}
\newlabel{Requisiti architetturali}{{1.4}{7}}
\@writefile{toc}{\contentsline {section}{\numberline {2}Progettazione Possibili Soluzioni}{8}}
\newlabel{sec:progettazionepossibilisoluzioni}{{2}{8}}
\@writefile{toc}{\contentsline {subsection}{\numberline {2.1}Descrizione}{8}}
\newlabel{descrizione}{{2.1}{8}}
\@writefile{toc}{\contentsline {subsection}{\numberline {2.2}Diagrammi BOAT}{8}}
\newlabel{boat}{{2.2}{8}}
\@writefile{lof}{\contentsline {figure}{\numberline {3}{\ignorespaces BOAT con invitati}}{9}}
\newlabel{fig:boatinvitati}{{3}{9}}
\@writefile{lof}{\contentsline {figure}{\numberline {4}{\ignorespaces BOAT fan}}{9}}
\newlabel{fig:boatfan}{{4}{9}}
\@writefile{lof}{\contentsline {figure}{\numberline {5}{\ignorespaces Modello di Porter}}{10}}
\newlabel{fig:modelloporter}{{5}{10}}
\@writefile{toc}{\contentsline {subsection}{\numberline {2.3}Architettura Party Level}{10}}
\newlabel{partylevel}{{2.3}{10}}
\@writefile{lof}{\contentsline {figure}{\numberline {6}{\ignorespaces Party level architecture}}{10}}
\newlabel{fig:partylevelarchitecture}{{6}{10}}
\@writefile{lof}{\contentsline {figure}{\numberline {7}{\ignorespaces Tabella dei messaggi party level architecture}}{11}}
\newlabel{fig:messaggipartylevelarchitecture}{{7}{11}}
\@writefile{toc}{\contentsline {subsection}{\numberline {2.4}Architettura System Level}{11}}
\newlabel{systemlevel}{{2.4}{11}}
\@writefile{lof}{\contentsline {figure}{\numberline {8}{\ignorespaces System level architecture}}{11}}
\newlabel{fig:systemlevelarchitecture}{{8}{11}}
\@writefile{lof}{\contentsline {figure}{\numberline {9}{\ignorespaces Messaggi system level architecture}}{12}}
\newlabel{fig:messaggisystemlevelarchitecture}{{9}{12}}
\@writefile{toc}{\contentsline {subsection}{\numberline {2.5}Requisiti non funzionali}{12}}
\newlabel{requisitinonfunzionali}{{2.5}{12}}
\@writefile{toc}{\contentsline {subsection}{\numberline {2.6}Architettura di massima}{13}}
\newlabel{architetturadimassima}{{2.6}{13}}
\@writefile{lof}{\contentsline {figure}{\numberline {10}{\ignorespaces Architettura fisica}}{13}}
\newlabel{fig:architetturafisicadimassima}{{10}{13}}
\@writefile{toc}{\contentsline {subsection}{\numberline {2.7}Diagramma di Gantt}{13}}
\newlabel{gantt}{{2.7}{13}}
\newlabel{RF1}{14}
\@writefile{lof}{\contentsline {figure}{\numberline {11}{\ignorespaces Diagramma di Gantt}}{14}}
\newlabel{fig:gantt}{{11}{14}}
\@writefile{toc}{\contentsline {section}{\numberline {3}Progettazione}{15}}
\newlabel{sec:progettazione}{{3}{15}}
\@writefile{toc}{\contentsline {subsection}{\numberline {3.1}Introduzione}{15}}
\newlabel{introduzione}{{3.1}{15}}
\@writefile{toc}{\contentsline {subsection}{\numberline {3.2}Descrizione sintetica Use Case}{15}}
\newlabel{DescrizioneUseCase}{{3.2}{15}}
\@writefile{toc}{\contentsline {subsection}{\numberline {3.3}Diagrammi Use Case}{15}}
\newlabel{diagrammausecase}{{3.3}{15}}
\@writefile{lof}{\contentsline {figure}{\numberline {12}{\ignorespaces Caso d'uso acquisto o riscatto}}{15}}
\newlabel{fig:UseCase1}{{12}{15}}
\@writefile{lof}{\contentsline {figure}{\numberline {13}{\ignorespaces Diagramma caso d'uso acquisto o riscatto biglietti}}{16}}
\newlabel{fig:DiagrammaUseCase}{{13}{16}}
\@writefile{lof}{\contentsline {figure}{\numberline {14}{\ignorespaces Caso d'uso inserimento di un evento}}{17}}
\newlabel{fig:UseCase2}{{14}{17}}
\@writefile{lof}{\contentsline {figure}{\numberline {15}{\ignorespaces Diagramma caso d'uso inserimento di un evento}}{17}}
\newlabel{fig:DiagrammaUseCase2}{{15}{17}}
\@writefile{toc}{\contentsline {subsection}{\numberline {3.4}Descrizione dettagliata degli Use Case}{18}}
\newlabel{DescrizioneDettagliataUseCase}{{3.4}{18}}
\@writefile{lof}{\contentsline {figure}{\numberline {16}{\ignorespaces Caso d'uso: Login}}{18}}
\newlabel{fig:Login}{{16}{18}}
\@writefile{lof}{\contentsline {figure}{\numberline {17}{\ignorespaces Caso d'uso: registrazione}}{19}}
\newlabel{fig:registrazione}{{17}{19}}
\@writefile{lof}{\contentsline {figure}{\numberline {18}{\ignorespaces Caso d'uso: modifica dei dati}}{19}}
\newlabel{fig:ModificaDati}{{18}{19}}
\@writefile{lof}{\contentsline {figure}{\numberline {19}{\ignorespaces Caso d'uso: scelta dell'evento}}{20}}
\newlabel{fig:SceltaEvento}{{19}{20}}
\@writefile{lof}{\contentsline {figure}{\numberline {20}{\ignorespaces Caso d'uso: riscatto codice}}{20}}
\newlabel{fig:RiscattoCodice}{{20}{20}}
\@writefile{lof}{\contentsline {figure}{\numberline {21}{\ignorespaces Caso d'uso: segnare nei preferiti}}{21}}
\newlabel{fig:SegnaNeiPreferiti}{{21}{21}}
\@writefile{lof}{\contentsline {figure}{\numberline {22}{\ignorespaces Caso d'uso: acquisto biglietto}}{21}}
\newlabel{fig:AcquistoBiglietto}{{22}{21}}
\@writefile{lof}{\contentsline {figure}{\numberline {23}{\ignorespaces Caso d'uso: notifica e consegna del biglietto}}{22}}
\newlabel{fig:NotificaEConsegna}{{23}{22}}
\@writefile{lof}{\contentsline {figure}{\numberline {24}{\ignorespaces Caso d'uso: aggiornamento del sistema}}{22}}
\newlabel{fig:AggiornamentoSistema}{{24}{22}}
\@writefile{lof}{\contentsline {figure}{\numberline {25}{\ignorespaces Caso d'uso: ricevuto pagamento}}{23}}
\newlabel{fig:RicevutoPagamento}{{25}{23}}
\@writefile{toc}{\contentsline {subsection}{\numberline {3.5}Diagrammi BPMN}{24}}
\newlabel{BPMN}{{3.5}{24}}
\newlabel{RF2}{25}
\@writefile{lof}{\contentsline {figure}{\numberline {26}{\ignorespaces Diagramma BPMN}}{25}}
\newlabel{fig:BPMN}{{26}{25}}
\@writefile{toc}{\contentsline {subsection}{\numberline {3.6}Diagramma delle classi}{26}}
\newlabel{DiagrammaDelleClassi}{{3.6}{26}}
\@writefile{lof}{\contentsline {figure}{\numberline {27}{\ignorespaces Diagramma delle classi}}{26}}
\newlabel{fig:ClassDiagram}{{27}{26}}
\@writefile{toc}{\contentsline {subsection}{\numberline {3.7}User eXperience}{27}}
\newlabel{UX}{{3.7}{27}}
\@writefile{lof}{\contentsline {figure}{\numberline {28}{\ignorespaces Diagramma Ux}}{27}}
\newlabel{fig:Ux}{{28}{27}}
\@writefile{toc}{\contentsline {subsection}{\numberline {3.8}Modello BCE}{28}}
\newlabel{BCE}{{3.8}{28}}
\@writefile{lof}{\contentsline {figure}{\numberline {29}{\ignorespaces Diagramma BCE}}{29}}
\newlabel{fig:BCE}{{29}{29}}
